[
    {
        "fields": {
            "published": false,
            "closed": false,
            "end": "2018-07-30T12:00:00Z",
            "start": "2018-05-30T00:00:00Z",
            "section": 1
        },
        "pk": 1,
        "model": "symposion_proposals.proposalsection"
    },
    {
        "fields": {
            "published": false,
            "closed": false,
            "end": "2018-07-30T12:00:00Z",
            "start": "2018-05-30T00:00:00Z",
            "section": 2
        },
        "pk": 2,
        "model": "symposion_proposals.proposalsection"
    },
    {
        "fields": {
            "published": null,
            "closed": null,
            "end": "2018-10-26T23:45:09Z",
            "start": "2018-09-27T00:45:05Z",
            "section": 3
        },
        "pk": 3,
        "model": "symposion_proposals.proposalsection"
    },
    {
        "fields": {
            "published": null,
            "closed": null,
            "end": "2018-10-26T23:45:32Z",
            "start": "2018-09-27T00:45:30Z",
            "section": 4
        },
        "pk": 4,
        "model": "symposion_proposals.proposalsection"
    },
    {
        "fields": {
            "published": null,
            "closed": null,
            "end": "2018-10-26T23:45:52Z",
            "start": "2018-09-27T00:45:51Z",
            "section": 5
        },
        "pk": 5,
        "model": "symposion_proposals.proposalsection"
    },
    {
        "fields": {
            "published": null,
            "closed": null,
            "end": "2018-10-26T23:46:13Z",
            "start": "2018-09-27T00:46:11Z",
            "section": 6
        },
        "pk": 6,
        "model": "symposion_proposals.proposalsection"
    },
    {
        "fields": {
            "published": null,
            "closed": null,
            "end": "2018-10-26T23:46:33Z",
            "start": "2018-09-27T00:46:31Z",
            "section": 7
        },
        "pk": 7,
        "model": "symposion_proposals.proposalsection"
    },
    {
        "fields": {
            "published": null,
            "closed": null,
            "end": "2018-10-26T23:46:58Z",
            "start": "2018-09-27T00:46:54Z",
            "section": 8
        },
        "pk": 8,
        "model": "symposion_proposals.proposalsection"
    },
    {
        "fields": {
            "published": null,
            "closed": null,
            "end": "2018-10-26T23:47:14Z",
            "start": "2018-09-27T00:47:12Z",
            "section": 9
        },
        "pk": 9,
        "model": "symposion_proposals.proposalsection"
    },
    {
        "fields": {
            "published": null,
            "closed": null,
            "end": "2018-10-26T23:47:32Z",
            "start": "2018-09-27T00:47:30Z",
            "section": 10
        },
        "pk": 10,
        "model": "symposion_proposals.proposalsection"
    },
    {
        "fields": {
            "published": null,
            "closed": null,
            "end": "2018-10-26T23:47:55Z",
            "start": "2018-09-27T00:47:53Z",
            "section": 11
        },
        "pk": 11,
        "model": "symposion_proposals.proposalsection"
    },
    {
        "fields": {
            "slug": "talk",
            "name": "Talk",
            "section": 1
        },
        "pk": 1,
        "model": "symposion_proposals.proposalkind"
    },
    {
        "fields": {
            "slug": "tutorial",
            "name": "Tutorial",
            "section": 1
        },
        "pk": 2,
        "model": "symposion_proposals.proposalkind"
    },
    {
        "fields": {
            "slug": "miniconf",
            "name": "Miniconf",
            "section": 2
        },
        "pk": 3,
        "model": "symposion_proposals.proposalkind"
    },
    {
        "fields": {
            "slug": "sysadmin-miniconf",
            "name": "Syadmin Miniconf Talk",
            "section": 4
        },
        "pk": 4,
        "model": "symposion_proposals.proposalkind"
    },
    {
        "fields": {
            "slug": "games-miniconf",
            "name": "Games Miniconf Talk",
            "section": 11
        },
        "pk": 5,
        "model": "symposion_proposals.proposalkind"
    },
    {
        "fields": {
            "slug": "openhardware-miniconf",
            "name": "Open Hardware Talk",
            "section": 3
        },
        "pk": 6,
        "model": "symposion_proposals.proposalkind"
    },
    {
        "fields": {
            "slug": "kernel-miniconf",
            "name": "Kernel Miniconf Talk",
            "section": 9
        },
        "pk": 7,
        "model": "symposion_proposals.proposalkind"
    },
    {
        "fields": {
            "slug": "opened-miniconf",
            "name": "Open Education Talk",
            "section": 8
        },
        "pk": 8,
        "model": "symposion_proposals.proposalkind"
    },
    {
        "fields": {
            "slug": "devdev-miniconf",
            "name": "Developer Miniconf Talk",
            "section": 7
        },
        "pk": 9,
        "model": "symposion_proposals.proposalkind"
    },
    {
        "fields": {
            "slug": "arttech-miniconf",
            "name": "Art and Tech Talk",
            "section": 5
        },
        "pk": 10,
        "model": "symposion_proposals.proposalkind"
    },
    {
        "fields": {
            "timezone": "Pacific/Auckland",
            "end_date": "2019-01-25",
            "start_date": "2019-01-21",
            "title": "linux.conf.au 2019"
        },
        "pk": 1,
        "model": "symposion_conference.conference"
    },
    {
        "fields": {
            "end_date": "2019-01-25",
            "start_date": "2019-01-23",
            "slug": "main",
            "name": "Main Conference",
            "conference": 1
        },
        "pk": 1,
        "model": "symposion_conference.section"
    },
    {
        "fields": {
            "end_date": "2019-01-22",
            "start_date": "2019-01-21",
            "slug": "miniconf",
            "name": "MiniConf",
            "conference": 1
        },
        "pk": 2,
        "model": "symposion_conference.section"
    },
    {
        "fields": {
            "end_date": null,
            "start_date": null,
            "slug": "open-hardware-miniconf",
            "name": "Open Hardware Miniconf",
            "conference": 1
        },
        "pk": 3,
        "model": "symposion_conference.section"
    },
    {
        "fields": {
            "end_date": null,
            "start_date": null,
            "slug": "systems-administration",
            "name": "Systems Administration",
            "conference": 1
        },
        "pk": 4,
        "model": "symposion_conference.section"
    },
    {
        "fields": {
            "end_date": null,
            "start_date": null,
            "slug": "art-and-tech-miniconf",
            "name": "Art and Tech Miniconf",
            "conference": 1
        },
        "pk": 5,
        "model": "symposion_conference.section"
    },
    {
        "fields": {
            "end_date": null,
            "start_date": null,
            "slug": "security-identity-and-privacy-miniconf",
            "name": "Security, Identity and Privacy Miniconf",
            "conference": 1
        },
        "pk": 6,
        "model": "symposion_conference.section"
    },
    {
        "fields": {
            "end_date": null,
            "start_date": null,
            "slug": "developer-developer-miniconf",
            "name": "Developer Developer Miniconf",
            "conference": 1
        },
        "pk": 7,
        "model": "symposion_conference.section"
    },
    {
        "fields": {
            "end_date": null,
            "start_date": null,
            "slug": "open-education-miniconf",
            "name": "Open Education Miniconf",
            "conference": 1
        },
        "pk": 8,
        "model": "symposion_conference.section"
    },
    {
        "fields": {
            "end_date": null,
            "start_date": null,
            "slug": "kernel-miniconf",
            "name": "Kernel Miniconf",
            "conference": 1
        },
        "pk": 9,
        "model": "symposion_conference.section"
    },
    {
        "fields": {
            "end_date": null,
            "start_date": null,
            "slug": "docs-down-under-miniconf",
            "name": "Docs Down Under Miniconf",
            "conference": 1
        },
        "pk": 10,
        "model": "symposion_conference.section"
    },
    {
        "fields": {
            "end_date": null,
            "start_date": null,
            "slug": "lca-games-miniconf",
            "name": "LCA Games Miniconf",
            "conference": 1
        },
        "pk": 11,
        "model": "symposion_conference.section"
    }
]
